<?xml version="1.0" encoding="UTF-8"?>
<svg width="18px" height="19px" viewBox="0 0 18 19" version="1.1" xmlns="http://www.w3.org/2000/svg" xmlns:xlink="http://www.w3.org/1999/xlink">
    <!-- Generator: Sketch 49.3 (51167) - http://www.bohemiancoding.com/sketch -->
    <title>Calender icon</title>
    <desc>Created with Sketch.</desc>
    <defs>
        <polygon id="path-1" points="0 0.2503 17.5 0.2503 17.5 19 0 19"></polygon>
        <polygon id="path-3" points="0 19 17.5 19 17.5 0.25 0 0.25"></polygon>
    </defs>
    <g id="MVP" stroke="none" stroke-width="1" fill="none" fill-rule="evenodd">
        <g id="03.1-Aubaine-Private-Dining-Enquiry-Pop-up-001" transform="translate(-648.000000, -891.000000)">
            <g id="Group">
                <g id="enquire-popup" transform="translate(159.000000, 466.000000)">
                    <g id="Main-content" transform="translate(129.000000, 129.000000)">
                        <g id="Fiels" transform="translate(0.000000, 96.000000)">
                            <g id="Date" transform="translate(0.000000, 183.000000)">
                                <g id="Calender-icon" transform="translate(360.000000, 16.000000)">
                                    <polygon id="Fill-1" fill="#FFFFFF" points="6.25 16.626 8.438 16.626 8.438 14.438 6.25 14.438"></polygon>
                                    <polygon id="Fill-2" fill="#FFFFFF" points="6.25 11 8.438 11 8.438 8.812 6.25 8.812"></polygon>
                                    <polygon id="Fill-3" fill="#FFFFFF" points="6.25 13.813 8.438 13.813 8.438 11.625 6.25 11.625"></polygon>
                                    <polygon id="Fill-4" fill="#FFFFFF" points="3.438 13.813 5.626 13.813 5.626 11.625 3.438 11.625"></polygon>
                                    <polygon id="Fill-5" fill="#FFFFFF" points="3.438 11 5.626 11 5.626 8.812 3.438 8.812"></polygon>
                                    <polygon id="Fill-6" fill="#FFFFFF" points="3.438 16.626 5.626 16.626 5.626 14.438 3.438 14.438"></polygon>
                                    <polygon id="Fill-7" fill="#FFFFFF" points="11.875 11 14.063 11 14.063 8.812 11.875 8.812"></polygon>
                                    <g id="Group-17" transform="translate(0.000000, 0.750000)">
                                        <g id="Group-10">
                                            <mask id="mask-2" fill="white">
                                                <use xlink:href="#path-1"></use>
                                            </mask>
                                            <g id="Clip-9"></g>
                                            <path d="M16.875,4.9373 L0.625,4.9373 L0.625,2.1243 L2.5,2.1243 L2.5,3.0623 C2.5,3.2353 2.64,3.3753 2.812,3.3753 L5,3.3753 C5.173,3.3753 5.312,3.2353 5.312,3.0623 L5.312,2.1243 L12.188,2.1243 L12.188,3.0623 C12.188,3.2353 12.327,3.3753 12.5,3.3753 L14.687,3.3753 C14.86,3.3753 15,3.2353 15,3.0623 L15,2.1243 L16.875,2.1243 L16.875,4.9373 Z M14.687,10.2503 L14.687,10.8753 L14.687,13.0623 L14.687,13.6873 L14.687,16.5003 L11.875,16.5003 L11.25,16.5003 L9.063,16.5003 L8.437,16.5003 L6.25,16.5003 L5.625,16.5003 L2.812,16.5003 L2.812,13.6873 L2.812,13.0623 L2.812,10.8753 L2.812,10.2503 L2.812,7.4373 L5.625,7.4373 L6.25,7.4373 L8.437,7.4373 L9.063,7.4373 L11.25,7.4373 L11.875,7.4373 L14.687,7.4373 L14.687,10.2503 Z M17.187,1.4993 L15,1.4993 L15,0.5623 C15,0.3903 14.86,0.2503 14.687,0.2503 L12.5,0.2503 C12.327,0.2503 12.188,0.3903 12.188,0.5623 L12.188,1.4993 L5.312,1.4993 L5.312,0.5623 C5.312,0.3903 5.173,0.2503 5,0.2503 L2.812,0.2503 C2.64,0.2503 2.5,0.3903 2.5,0.5623 L2.5,1.4993 L0.313,1.4993 C0.14,1.4993 0,1.6403 0,1.8123 L0,5.2493 L0,18.6873 C0,18.8603 0.14,19.0003 0.313,19.0003 L17.187,19.0003 C17.36,19.0003 17.5,18.8603 17.5,18.6873 L17.5,5.2493 L17.5,1.8123 C17.5,1.6403 17.36,1.4993 17.187,1.4993 Z" id="Fill-8" fill="#FFFFFF" mask="url(#mask-2)"></path>
                                        </g>
                                        <mask id="mask-4" fill="white">
                                            <use xlink:href="#path-3"></use>
                                        </mask>
                                        <g id="Clip-12"></g>
                                        <polygon id="Fill-11" fill="#FFFFFF" mask="url(#mask-4)" points="11.875 13.063 14.063 13.063 14.063 10.875 11.875 10.875"></polygon>
                                        <polygon id="Fill-13" fill="#FFFFFF" mask="url(#mask-4)" points="11.875 15.876 14.063 15.876 14.063 13.688 11.875 13.688"></polygon>
                                        <polygon id="Fill-14" fill="#FFFFFF" mask="url(#mask-4)" points="9.063 15.876 11.251 15.876 11.251 13.688 9.063 13.688"></polygon>
                                        <polygon id="Fill-15" fill="#FFFFFF" mask="url(#mask-4)" points="9.063 13.063 11.251 13.063 11.251 10.875 9.063 10.875"></polygon>
                                        <polygon id="Fill-16" fill="#FFFFFF" mask="url(#mask-4)" points="9.063 10.25 11.251 10.25 11.251 8.062 9.063 8.062"></polygon>
                                    </g>
                                </g>
                            </g>
                        </g>
                    </g>
                </g>
            </g>
        </g>
    </g>
</svg>